…
Model
=====

Model Basics
------------

### What happens if you repeat the analysis of `sim2` using a model without an intercept. What happens to the model equation? What happens to the predictions?

``` r
sim2
```

    ## # A tibble: 40 × 2
    ##        x          y
    ##    <chr>      <dbl>
    ## 1      a  1.9353632
    ## 2      a  1.1764886
    ## 3      a  1.2436855
    ## 4      a  2.6235489
    ## 5      a  1.1120381
    ## 6      a  0.8660030
    ## 7      a -0.9100875
    ## 8      a  0.7207628
    ## 9      a  0.6865540
    ## 10     a  2.0673079
    ## # ... with 30 more rows
…
``` r
diamonds2 %>% 
  filter(lcarat > -2, lcarat < -1.5) 
```

    ## # A tibble: 10,273 × 12
    ##    carat       cut color clarity depth table price     x     y     z
    ##    <dbl>     <ord> <ord>   <ord> <dbl> <dbl> <int> <dbl> <dbl> <dbl>
    ## 1   0.29   Premium     I     VS2  62.4    58   334  4.20  4.23  2.63
    ## 2   0.31      Good     J     SI2  63.3    58   335  4.34  4.35  2.75
    ## 3   0.26 Very Good     H     SI1  61.9    55   337  4.07  4.11  2.53
    ## 4   0.30      Good     J     SI1  64.0    55   339  4.25  4.28  2.73
    ## 5   0.31     Ideal     J     SI2  62.2    54   344  4.35  4.37  2.71
    ## 6   0.32   Premium     E      I1  60.9    58   345  4.38  4.42  2.68
    ## 7   0.30     Ideal     I     SI2  62.0    54   348  4.31  4.34  2.68
    ## 8   0.30      Good     J     SI1  63.4    54   351  4.23  4.29  2.70
    ## 9   0.30      Good     J     SI1  63.8    56   351  4.23  4.26  2.71
    ## 10  0.30 Very Good     J     SI1  62.7    59   351  4.21  4.27  2.66
    ## # ... with 10,263 more rows, and 2 more variables: lprice <dbl>,
    ## #   lcarat <dbl>
…
