…
```r
df_vowel_count %>% arrange(desc(prop))
```

```
## # A tibble: 980 × 4
##     words vowel_count word_length      prop
##     <chr>       <int>       <int>     <dbl>
## 1       a           1           1 1.0000000
## 2    area           3           4 0.7500000
## 3    idea           3           4 0.7500000
## 4     age           2           3 0.6666667
## 5     ago           2           3 0.6666667
## 6     air           2           3 0.6666667
## 7     die           2           3 0.6666667
## 8     due           2           3 0.6666667
## 9     eat           2           3 0.6666667
## 10 europe           4           6 0.6666667
## # ... with 970 more rows
```
…
